Feature & Target Engineering
…
Missing values can be a result of many different reasons; however, these reasons are usually lumped into two categories: 

* informative missingess

* missingness at random

]

.pull-right[

```r
AmesHousing::ames_raw %>% 
  filter(is.na(`Garage Type`)) %>% 
  select(`Garage Type`, `Garage Cars`, `Garage Area`)
## # A tibble: 157 x 3
##    `Garage Type` `Garage Cars` `Garage Area`
##    <chr>                 <int>         <int>
##  1 <NA>                      0             0
##  2 <NA>                      0             0
##  3 <NA>                      0             0
##  4 <NA>                      0             0
##  5 <NA>                      0             0
##  6 <NA>                      0             0
##  7 <NA>                      0             0
##  8 <NA>                      0             0
##  9 <NA>                      0             0
## 10 <NA>                      0             0
## # … with 147 more rows
```
…
* Label encoding:
   - pure numeric conversion of the levels of a categorical variable
   - most common: ordinal encoding
]

.pull-right[

.center.bold[Quality variables with natural ordering]

```r
ames_train %>% select(contains("Qual"))
## # A tibble: 2,199 x 6
##    Overall_Qual Exter_Qual Bsmt_Qual Low_Qual_Fin_SF Kitchen_Qual
##    <fct>        <fct>      <fct>               <int> <fct>       
##  1 Above_Avera… Typical    Typical                 0 Good        
##  2 Good         Good       Typical                 0 Excellent   
##  3 Average      Typical    Good                    0 Typical     
##  4 Above_Avera… Typical    Typical                 0 Good        
##  5 Very_Good    Good       Good                    0 Good        
##  6 Very_Good    Good       Good                    0 Good        
##  7 Good         Typical    Typical                 0 Good        
##  8 Above_Avera… Typical    Good                    0 Typical     
##  9 Above_Avera… Typical    Good                    0 Typical     
## 10 Good         Typical    Good                    0 Good        
## # … with 2,189 more rows, and 1 more variable: Garage_Qual <fct>
```
…
* 3 main components to consider
   1. recipe: define your pre-processing blue print
   2. prepare: estimate parameters based on training data
   3. .bold[bake: apply blue print to new data]

]

.pull-right[

```r
baked_train <- bake(prepare, new_data = ames_train)
baked_test <- bake(prepare, new_data = ames_test)

baked_train
## # A tibble: 2,199 x 68
##    MS_SubClass MS_Zoning Lot_Frontage Lot_Area Lot_Shape Lot_Config
##    <fct>       <fct>            <dbl>    <dbl> <fct>     <fct>     
##  1 One_Story_… Resident…       0.692   0.515   Slightly… Corner    
##  2 One_Story_… Resident…       1.05    0.125   Regular   Corner    
##  3 Two_Story_… Resident…       0.484   0.460   Slightly… Inside    
##  4 Two_Story_… Resident…       0.603  -0.0227  Slightly… Inside    
##  5 One_Story_… Resident…      -0.496  -0.656   Regular   Inside    
##  6 One_Story_… Resident…      -0.436  -0.646   Slightly… Inside    
##  7 Two_Story_… Resident…       0.0682 -0.333   Regular   Inside    
##  8 Two_Story_… Resident…       0.513  -0.0199  Slightly… Corner    
##  9 One_Story_… Resident…      -1.71   -0.273   Slightly… Inside    
## 10 One_Story_… Resident…       0.810   0.00212 Regular   Inside    
## # … with 2,189 more rows, and 62 more variables: Neighborhood <fct>,
## #   Condition_1 <dbl>, Bldg_Type <fct>, House_Style <fct>,
## #   Overall_Qual <dbl>, Overall_Cond <dbl>, Year_Built <dbl>,
## #   Year_Remod_Add <dbl>, Roof_Style <fct>, Exterior_1st <fct>,
## #   Exterior_2nd <fct>, Mas_Vnr_Type <fct>, Mas_Vnr_Area <dbl>,
## #   Exter_Qual <dbl>, Exter_Cond <dbl>, Foundation <fct>, Bsmt_Qual <dbl>,
## #   Bsmt_Exposure <fct>, BsmtFin_Type_1 <fct>, BsmtFin_SF_1 <dbl>,
## #   BsmtFin_SF_2 <dbl>, Bsmt_Unf_SF <dbl>, Total_Bsmt_SF <dbl>,
## #   Heating_QC <dbl>, Central_Air <fct>, Electrical <fct>,
…
